2020-10-29T08:11:07+00:00 CRITICAL Uncaught Error: Class 'WPBakeryShortCode_Vc_Row' not found in /home/digirfvu/public_html/wp-content/plugins/js_composer/include/classes/shortcodes/vc-row-inner.php:11
Stack trace:
#0 /home/digirfvu/public_html/wp-content/plugins/js_composer/include/autoload/vc-shortcode-autoloader.php(66): require_once()
#1 /home/digirfvu/public_html/wp-content/plugins/js_composer/include/classes/shortcodes/core/class-vc-shortcodes-manager.php(107): VcShortcodeAutoloader::includeClass('wpbakeryshortco...')
#2 /home/digirfvu/public_html/wp-content/plugins/js_composer/include/helpers/helpers.php(1317): Vc_Shortcodes_Manager->getElementClass('vc_row_inner')
#3 /home/digirfvu/public_html/wp-includes/shortcodes.php(343): vc_do_shortcode('', '[vc_column_inne...', 'vc_row_inner')
#4 [internal function]: do_shortcode_tag(Array)
#5 /home/digirfvu/public_html/wp-includes/shortcodes.php(218): preg_replace_callback('/\\[(\\[?)(vc_row...', 'do_shortcode_ta...', '[vc_row_inner][...')
#6 /home/digirfvu/public_html/wp-content/plugins/js_comp in /home/digirfvu/public_html/wp-content/plugins/js_composer/include/classes/shortcodes/vc-row-inner.php on line 11

2020-10-29T08:14:04+00:00 CRITICAL syntax error, unexpected ''' (T_ENCAPSED_AND_WHITESPACE), expecting ')' in /home/digirfvu/public_html/wp-content/plugins/js_composer/include/params/iconpicker/iconpicker.php on line 1298

2020-10-29T08:14:04+00:00 CRITICAL syntax error, unexpected ''Paper (Hand' (T_ENCAPSED_AND_WHITESPACE) in /home/digirfvu/public_html/wp-content/plugins/js_composer/include/params/iconpicker/iconpicker.php on line 1496

2020-10-29T08:14:22+00:00 CRITICAL syntax error, unexpected ''Envelope Open (e-mai' (T_ENCAPSED_AND_WHITESPACE) in /home/digirfvu/public_html/wp-content/plugins/js_composer/include/params/iconpicker/iconpicker.php on line 3146

2020-10-29T08:14:29+00:00 CRITICAL syntax error, unexpected end of file, expecting ')' in /home/digirfvu/public_html/wp-content/plugins/js_composer/include/params/iconpicker/iconpicker.php on line 4339

2020-10-29T08:26:58+00:00 CRITICAL Uncaught Error: Class 'Vc_Vendor_Woocommerce' not found in /home/digirfvu/public_html/wp-content/plugins/js_composer/include/autoload/vendors/woocommerce.php:27
Stack trace:
#0 /home/digirfvu/public_html/wp-includes/class-wp-hook.php(287): vc_init_vendor_woocommerce('')
#1 /home/digirfvu/public_html/wp-includes/class-wp-hook.php(311): WP_Hook->apply_filters(NULL, Array)
#2 /home/digirfvu/public_html/wp-includes/plugin.php(478): WP_Hook->do_action(Array)
#3 /home/digirfvu/public_html/wp-settings.php(409): do_action('plugins_loaded')
#4 /home/digirfvu/public_html/wp-config.php(92): require_once('/home/digirfvu/...')
#5 /home/digirfvu/public_html/wp-load.php(37): require_once('/home/digirfvu/...')
#6 /home/digirfvu/public_html/wp-admin/admin-ajax.php(22): require_once('/home/digirfvu/...')
#7 {main}
  thrown in /home/digirfvu/public_html/wp-content/plugins/js_composer/include/autoload/vendors/woocommerce.php on line 27

